# u^2 m-spectrum (volumetric average) N. Schaeffer 230407 (from m=1 to mmax= 351)
# Ek=1e-8, Pr=0.01, Ra=2.5e10, P_conv_nu_QG=7.7e12, P_conv_nu=7e12
4.332943866722317040e+07
7.286528420604990423e+07
3.805876667043181509e+07
3.194706875237838179e+07
2.592288184965429828e+07
3.099673512752362713e+07
2.786362861967473477e+07
3.383301219191365689e+07
2.768349073661336675e+07
2.039576608433886617e+07
1.625418345717358403e+07
2.653340256917548180e+07
1.989454404933243990e+07
2.092886028792288527e+07
1.466296715903887153e+07
1.628023028339586034e+07
1.504877484815964289e+07
1.276670951041769423e+07
1.131658917793034390e+07
1.174094212782598287e+07
1.509438114494423009e+07
6.632642523432331160e+06
1.096858981981081888e+07
7.216301721350049600e+06
6.545979366432080977e+06
6.915595256355550140e+06
6.058716516587181948e+06
9.094790647921429947e+06
9.912011478226086125e+06
1.023702910732888989e+07
9.413617912023784593e+06
6.433342552226960659e+06
4.749080261115096509e+06
7.458959665476095863e+06
6.684118743759492412e+06
9.276876984909253195e+06
4.286473105661377311e+06
6.669571433978471905e+06
8.138188137525841594e+06
6.410184475757637993e+06
6.630277848177192733e+06
5.624069289319441654e+06
5.796602220886271447e+06
4.600065706802418455e+06
4.643684812790569849e+06
6.027452299690902233e+06
4.705267517108332366e+06
5.192348210592303425e+06
4.778932757078204304e+06
2.961454364702611696e+06
5.524628092099632137e+06
4.342824414345448837e+06
3.079152338016811293e+06
6.414340289303062484e+06
4.998168752615035512e+06
5.147658271165775135e+06
5.185820095169755630e+06
2.677271645570520312e+06
3.739351022567017935e+06
3.765126127545165829e+06
2.987224748728274833e+06
4.858802316495098174e+06
3.106748715839136858e+06
3.853145670323902741e+06
3.916876734261067584e+06
3.200012735855692998e+06
3.732604154822249431e+06
2.124771963416140527e+06
2.202219793435027823e+06
3.102033919656734914e+06
2.200307483747440390e+06
2.303440330543108284e+06
2.901181345681064297e+06
3.723271864831899758e+06
1.843179141216126969e+06
2.427392759222626686e+06
1.540345516639454523e+06
1.675517499353593215e+06
2.469636740226481576e+06
2.253459366197573952e+06
2.508171586113132071e+06
2.422627728380786721e+06
1.809469013325279113e+06
2.247918015495489817e+06
1.650004688133743824e+06
1.570297906254073605e+06
1.155134485753507353e+06
1.072869048257406102e+06
1.443689530064965598e+06
1.164547237521064002e+06
1.127077728260722943e+06
1.483005886222222820e+06
1.150356073718572501e+06
9.849952348099094816e+05
1.008478991619412904e+06
8.324377871537703322e+05
9.057069668401010567e+05
1.275585351753019029e+06
6.961892858548802324e+05
9.910154763727891259e+05
9.386759605401224690e+05
9.692414881383214379e+05
8.861118565656624269e+05
6.862341216930522351e+05
5.936863692194940522e+05
6.533812540104934014e+05
6.263006750701755518e+05
6.058188336890706560e+05
5.646587156781600788e+05
6.273752773056010483e+05
7.494448068072765600e+05
6.776337152277707355e+05
7.952077522242765408e+05
3.807235138096503797e+05
4.571069186322034802e+05
5.431320695212726714e+05
4.581875010973024182e+05
4.614503172833231511e+05
3.619665092699032975e+05
3.008777143518597004e+05
3.790691458048031200e+05
4.150456014873383683e+05
3.942937899670954794e+05
2.849282029296655674e+05
3.440518408577747177e+05
3.608454765367246582e+05
3.044278842890606029e+05
2.611090808417134394e+05
2.405948981570026081e+05
2.501964831061380974e+05
2.426276202982219984e+05
2.840285976194946561e+05
2.062688551372630172e+05
3.002993694984887843e+05
2.313821195600087813e+05
2.085759487406768894e+05
1.684003802325069555e+05
1.608710068112825975e+05
1.868493213032970089e+05
2.192945494352125679e+05
2.149858289074316272e+05
1.886447303669057728e+05
1.157590708664800914e+05
1.643731524724549381e+05
1.060427261491249665e+05
1.616717183537967212e+05
1.074588483121317986e+05
9.019194488834435469e+04
1.013205902568356396e+05
1.364096038292792800e+05
1.449800520108292403e+05
9.458492316444676544e+04
1.317052020854386501e+05
7.949060994162343559e+04
9.437716057571762940e+04
9.282846047343587270e+04
7.857461673722120759e+04
7.165570221834281983e+04
8.913324215059539711e+04
7.123509253982793598e+04
6.121472265828788659e+04
6.383025496135066351e+04
7.660290881282466580e+04
5.399994221793665929e+04
1.113709906346346106e+05
6.395589981741533848e+04
7.073072745418516570e+04
6.310293992098565650e+04
3.729482225331739028e+04
6.082269220149045577e+04
6.228686838950972015e+04
4.452556457498071541e+04
4.674069050630605489e+04
4.757457140910461749e+04
3.832138583248699433e+04
4.337433418215044367e+04
3.725998138190739701e+04
2.713829999201230748e+04
3.434506093438989046e+04
4.233892100898965873e+04
3.853991379462229816e+04
2.959434851507397616e+04
3.718635762610656093e+04
2.995324253604261321e+04
2.242766802822816317e+04
2.869913309918451705e+04
2.574481490568318259e+04
2.710773471502906614e+04
2.651769475796976985e+04
2.972880543246238813e+04
2.371465406280809111e+04
2.199540449129341505e+04
2.702500217222654101e+04
1.957225002927146124e+04
2.372854300551158303e+04
2.036615046306618751e+04
1.849965248577808597e+04
2.906742371469084901e+04
2.034086753344952376e+04
1.918207369390367967e+04
2.174735404070084769e+04
1.431374194801805425e+04
1.716694539469427400e+04
2.023618500117527219e+04
1.541910400399993887e+04
1.395906861417158689e+04
1.398861183932070162e+04
1.275675670262200765e+04
1.419577041626218306e+04
1.278794529926571340e+04
1.365463137623625698e+04
1.080568988352277120e+04
1.264724272161157933e+04
1.032717338496049524e+04
9.370677401489643671e+03
1.153993777787289218e+04
1.033595963948654389e+04
1.181326029796621333e+04
1.078536200282753998e+04
8.692959092519400656e+03
9.200651766673658130e+03
8.516881838672730737e+03
9.541033381944705980e+03
8.655355259527736052e+03
9.450497470484307996e+03
7.985279324957789868e+03
8.104397713523512721e+03
5.931896830081350345e+03
7.233484750648611225e+03
7.264098465449410469e+03
6.685511139978505526e+03
8.081898500659806814e+03
6.141432509059638505e+03
5.671766915567770411e+03
6.490463657733230320e+03
7.070333623455304405e+03
6.351404702648216698e+03
7.042607927924718751e+03
5.738915968272912323e+03
6.235676261280569634e+03
7.559865249079173736e+03
6.378123833714447755e+03
5.263763352568558730e+03
4.726344705958044869e+03
5.828471831509554249e+03
4.780256154947408504e+03
4.713478756810907726e+03
4.613742477424801109e+03
4.487265437686406585e+03
4.546294019999650118e+03
4.678010835853771823e+03
3.715171922075566272e+03
3.798434699284574435e+03
3.399814824430488898e+03
4.631703572130506473e+03
3.353378930394991130e+03
4.212652665158130731e+03
3.490599558304007587e+03
3.596347928675163985e+03
3.540673134689848666e+03
3.514598105983148344e+03
3.376062992126587233e+03
3.210635198866316387e+03
2.939107283285163703e+03
2.834022578989007798e+03
2.789942883513319885e+03
2.413248651074809914e+03
2.026340302826727793e+03
2.586030135327778225e+03
2.063676147912417946e+03
2.224703601782637179e+03
1.898173788103145853e+03
1.736388245603201312e+03
2.318006299859453065e+03
1.922633688389365716e+03
1.817458032970812837e+03
1.885583041093260135e+03
1.990926663662156898e+03
2.182973699175076945e+03
1.924358819448372287e+03
1.948273002438481171e+03
1.662954120651560288e+03
1.611859109829955969e+03
1.972684994231281735e+03
1.497741043879040944e+03
1.559730686735838844e+03
1.533333630179013198e+03
1.176465019888311872e+03
1.138592466769602424e+03
1.334018449141974543e+03
1.141354959097146548e+03
1.203052448159809501e+03
1.039499723816890537e+03
1.102241884386092579e+03
1.035081338390534938e+03
1.139567743246605005e+03
1.065209000531976017e+03
8.015853643258344619e+02
1.051215415220272689e+03
9.109453059024002641e+02
9.204561569967883088e+02
9.016625043010161562e+02
7.970696551806460093e+02
8.597132161532883856e+02
6.943788411411849211e+02
6.173194011109151234e+02
6.276218365861681150e+02
7.646816869521608169e+02
5.436517481407743162e+02
5.823249960508770755e+02
5.282937067267549764e+02
5.622046062718995927e+02
6.371053026829823693e+02
4.964076589659782144e+02
4.901826112864487754e+02
4.014509874967294536e+02
3.847090696178242979e+02
3.632227415698307595e+02
3.152444586772377875e+02
