# u_r^2 m-spectrum (volumetric average) N. Schaeffer 230407 (from m=1 to mmax=319)
# Ek=1e-8, Pr=0.01, Ra=2.5e10, P_conv_nu_QG=7.7e12, P_conv_nu=7e12
7.369362389896561217e+04
1.690843310655893874e+05
4.179772968833530322e+05
5.032966222632925492e+05
6.180272697469694540e+05
3.836212046025532763e+05
5.254597904933983227e+05
1.500937710293523734e+06
9.834826912284458522e+05
5.185930317951422767e+05
1.330523270796744851e+06
1.567135293884606101e+06
1.594775681839785539e+06
1.160942092468915507e+06
1.190260953671667725e+06
1.513913668049058178e+06
1.173709125585893868e+06
1.103877036283996189e+06
1.363734444573553512e+06
1.043430212902792147e+06
1.431643612123512197e+06
9.731781799017548328e+05
1.420691343033798737e+06
1.066022595892065438e+06
7.388642561813059729e+05
1.091506442081553163e+06
1.011193970647095237e+06
1.223034145470854128e+06
1.462492351114626508e+06
1.945260010970045114e+06
1.647961761077764677e+06
1.064109933407058474e+06
7.021115680259572109e+05
8.357105190047072247e+05
9.173762275663778419e+05
1.256283843994401162e+06
7.071526155044033658e+05
1.363331972381152213e+06
1.680422884514040314e+06
1.251773791768734809e+06
1.114279940706243040e+06
1.161452193104535574e+06
1.024607305996978539e+06
7.547967706651764456e+05
9.281963324072821997e+05
1.264426741739842109e+06
1.033980614440481411e+06
1.154420464895707089e+06
1.015785376400520792e+06
4.813262634148525540e+05
1.091066078124549938e+06
1.008803168445618823e+06
6.962273713377128588e+05
1.170189044936839025e+06
1.363935910812405404e+06
1.197933321358916117e+06
9.180025927056772634e+05
6.090773171891558450e+05
8.980293836300747935e+05
1.004980594706157804e+06
6.496584899191287113e+05
1.265602875102885533e+06
6.875769981289496645e+05
9.677170844138517277e+05
1.195300584698793711e+06
8.901399741154594813e+05
9.502829244757618289e+05
4.758877566207940108e+05
4.489039438804393285e+05
8.523431361810106318e+05
4.726457834850648651e+05
6.458194299945643870e+05
7.467795197775351116e+05
9.886533163996336516e+05
4.200152346832853509e+05
6.283270571201852290e+05
3.217134218892434728e+05
4.356340464420572389e+05
5.754300731815821491e+05
6.073762456453823252e+05
7.975977084613679908e+05
7.245592314832078991e+05
5.116406621760545531e+05
7.114578740234312136e+05
4.212021895902270335e+05
4.502126166289119283e+05
3.013326508573135361e+05
3.016794657495534630e+05
3.553381194422542467e+05
3.483936553179314942e+05
3.133456698849778040e+05
4.619936544835424866e+05
3.714474994117537863e+05
2.630951893563797930e+05
2.782123893512575887e+05
2.436391083211975638e+05
2.572050187984077202e+05
3.809466004793937318e+05
2.032115383931334363e+05
2.996050148639926920e+05
2.568018712049619062e+05
2.926520089009752264e+05
2.189224806542342121e+05
2.010813060649832478e+05
1.593254989567204902e+05
1.909647483756712463e+05
1.581403551855968835e+05
1.694127733438867435e+05
1.639936197313412849e+05
1.474691396486705926e+05
2.168418201256728789e+05
2.022866443638611818e+05
1.935505193518378655e+05
1.112855908877429902e+05
1.388189684505963232e+05
1.707719058783167566e+05
1.329572640929633635e+05
1.530571781140486710e+05
1.190075871429064864e+05
8.319929221499558480e+04
1.303370587998055707e+05
1.367658809936410107e+05
1.097199167937442544e+05
8.653776357574618305e+04
1.084280834370318917e+05
8.149814564044999133e+04
9.032624774805600464e+04
7.100508674307778710e+04
7.068325254679482896e+04
7.326623497576267982e+04
7.029439687581935141e+04
9.394962846986720979e+04
6.654435640224994859e+04
1.042714473099113675e+05
6.913316905449387559e+04
6.039684578944285022e+04
5.390191307948545727e+04
4.875647372751220246e+04
5.757024556072081032e+04
7.135134477092561428e+04
7.227446385589220154e+04
6.099712900525718578e+04
3.617779430680321821e+04
5.335834394446910301e+04
3.187824183416697997e+04
5.904472645969605219e+04
3.466165605178631085e+04
3.076126242037876000e+04
3.433502228660136461e+04
4.462389366393844830e+04
4.161361982591627020e+04
2.966027306346578916e+04
4.593576197230522666e+04
2.405078378620207513e+04
3.141592020852260976e+04
3.023279802535853742e+04
2.611216650252528780e+04
2.260119289849610868e+04
2.969336187416470784e+04
2.431993292641523658e+04
2.205344759014897500e+04
1.981377550506481202e+04
2.551335914930169019e+04
1.607062588011029220e+04
4.418541522593841364e+04
2.128167315006687204e+04
2.269107960108951738e+04
2.237737251030507468e+04
1.144781264813702182e+04
2.122400948595051523e+04
1.916632407030001195e+04
1.492867231704520964e+04
1.570247357312146050e+04
1.592718824760725693e+04
1.265398259537925333e+04
1.423893732724619622e+04
1.302927579610994144e+04
9.483112869164018775e+03
1.117895176734799861e+04
1.620840429765846238e+04
1.378759463540222532e+04
1.002444359595743845e+04
1.315932983722465906e+04
8.973144633482605059e+03
7.153343970355062993e+03
1.042787084735477220e+04
9.145976176601687257e+03
8.550994500212098501e+03
8.704125944570752836e+03
9.564637996962224861e+03
7.949204362407006556e+03
8.689211554978553977e+03
1.042661151515612073e+04
6.393444823967087359e+03
7.587678610285864124e+03
7.146266217362521274e+03
6.430793406556557784e+03
1.032570630277890632e+04
7.575750690238431162e+03
6.494005837769719619e+03
7.980135865079769246e+03
4.693196288259186986e+03
5.925005099893192892e+03
7.288236960633558738e+03
5.435210586114531907e+03
4.816718102576546698e+03
5.327986722505891521e+03
4.271088217590989188e+03
4.742612357322671414e+03
4.536504721865651845e+03
5.127901354462701420e+03
3.935810946331170271e+03
4.238360826988633562e+03
3.397979483290946519e+03
3.329051669713518550e+03
4.143711647024378181e+03
3.780776926577091672e+03
4.352769305339596940e+03
3.982829627144863935e+03
2.737397319357657125e+03
3.443079482198962978e+03
3.032989524064308171e+03
3.438075049006556583e+03
2.811943926502494833e+03
3.652679974147969460e+03
2.997978604679040018e+03
2.761003489173956496e+03
2.389063909099937064e+03
2.362119510736828488e+03
2.914606533044069693e+03
2.416733877118261717e+03
3.132876495486797467e+03
2.245989333219306900e+03
2.104495021725352217e+03
2.043277529069541743e+03
2.603367594303199439e+03
2.376667135433470776e+03
2.661221610382061499e+03
2.121966071146601280e+03
2.511979868334122784e+03
2.708832745898067060e+03
2.208203089253559028e+03
1.809299187985582648e+03
1.497694668663669745e+03
2.067362762224230664e+03
1.817172428175952291e+03
1.702010325475183663e+03
1.653662854724908129e+03
1.659527673646580752e+03
1.482182863608848038e+03
1.712396831275455042e+03
1.390936168295276957e+03
1.509040501063750298e+03
1.273132131257130595e+03
1.776254198764197099e+03
1.424525185544667238e+03
1.589263171279649214e+03
1.339035885523815750e+03
1.538079885633861750e+03
1.355174720725841098e+03
1.259539326666758825e+03
1.134470870130878893e+03
1.265891168825160321e+03
1.144919543513889266e+03
1.131805548210744064e+03
1.153583182746426928e+03
1.051557210779134721e+03
8.181383533960261047e+02
1.030841450722603895e+03
8.046904980885315126e+02
8.805167171348500688e+02
6.837000908397012608e+02
6.682746727786250176e+02
8.533139939253705961e+02
7.710093495160094790e+02
7.588588924240980305e+02
8.225024451326005419e+02
8.388093465795374186e+02
9.441435715685482819e+02
7.918885259816755706e+02
8.242321179282922685e+02
6.338648830727364611e+02
6.856559172855099860e+02
8.031134631861114030e+02
6.829869823358091026e+02
5.870357664867125322e+02
6.446998171574131220e+02
4.883685943274474539e+02
4.834848748961184697e+02
6.038761865084051124e+02
4.968888575899548528e+02
4.792006566723075593e+02
4.829537465940327365e+02
4.618434036411929355e+02
4.435164515789263646e+02
4.920291913082127166e+02
4.503290429342574157e+02
3.395131126572694029e+02
4.548985309827734795e+02
3.944847124140309802e+02
4.360671108948700976e+02
3.935741817938277904e+02
3.688186176712790143e+02
3.725950230439498796e+02
3.024752493704542644e+02
2.767511052385279413e+02
2.948505196245203592e+02
3.236319309377850004e+02
2.737760337916553226e+02
2.667528283771531505e+02
2.540658079472278814e+02
2.760688066844955983e+02
3.059740045367442463e+02
2.379455863734733612e+02
2.242951047638811701e+02
1.798037535078704252e+02
1.877904703725961895e+02
1.594738356185732471e+02
1.512548889738707771e+02
