# rho^2 n-spectrum (volumetric average) N. Schaeffer 230407 (from n=1 to nmax=351)
# Ek=1e-8, Pr=0.01, Ra=2.5e10, P_conv_nu_QG=7.7e12, P_conv_nu=7e12
1.864093659903164057e-03
1.435130964337437476e+00
3.220483974527677852e-03
3.126847230246436460e-02
4.276920784388437910e-03
1.524620209197802626e-02
6.664349439156999795e-03
5.833026562295666462e-03
6.473012295483513735e-03
5.597395778444757240e-03
6.696862581175434641e-03
7.188174456860753521e-03
7.389739027624462817e-03
7.698571358290737764e-03
7.737267381002497710e-03
7.809214418436530303e-03
8.472175239790942503e-03
8.164039926335239089e-03
8.218039545983466670e-03
7.448654354087597650e-03
8.801120849552089218e-03
7.243066957439238396e-03
8.432521674260078440e-03
7.373083775256625283e-03
7.545156414245179737e-03
7.541079202259609246e-03
7.686146867383159692e-03
8.033742822958378493e-03
8.087591498043446639e-03
9.215819866811849823e-03
8.121493618128626871e-03
8.056240469145586197e-03
7.016827336521329686e-03
7.819609128711987184e-03
6.493577900382732290e-03
8.114579697443587494e-03
5.819037324494420911e-03
8.074725281368835828e-03
7.176438371396563938e-03
7.934833830227833174e-03
6.639181013094614878e-03
7.644425776409473003e-03
6.302858644172563106e-03
6.487193168402456515e-03
5.983351146647416033e-03
6.637981014985279773e-03
6.014290066832543233e-03
6.256262347651485138e-03
5.868268936397609027e-03
5.149437436530957847e-03
5.645819176099536700e-03
5.472923916270365334e-03
4.919005173599812208e-03
5.353314148122883392e-03
5.812132839046116675e-03
5.411646367905384968e-03
5.215874206952515572e-03
4.542867716808554265e-03
4.891092731532807950e-03
4.512243007567424101e-03
4.304768008980932800e-03
4.931954527746803402e-03
3.942302297217358323e-03
4.542303219962496273e-03
4.673121562121629324e-03
4.256874580228372194e-03
4.338377921404668741e-03
3.364249641525676911e-03
3.419340891995326873e-03
3.605190267644867944e-03
2.979566544425391820e-03
3.234306850764380979e-03
2.938609935709907139e-03
3.421428416732602649e-03
2.493916015798527085e-03
2.668218946066865885e-03
2.116311108129253441e-03
2.275676887610291604e-03
2.239184833186389639e-03
2.246874984978787168e-03
2.587692565475529626e-03
2.492742739028380641e-03
2.213760639815736796e-03
2.449329466748147166e-03
1.775169245246774113e-03
1.969847403161543477e-03
1.529374901206637972e-03
1.567696409722119663e-03
1.374886409423967896e-03
1.396351616787345692e-03
1.244251716123668649e-03
1.405477961354205472e-03
1.233771670448127180e-03
1.171078276124700454e-03
1.086287026732769660e-03
1.019880954443556226e-03
1.045960925878575490e-03
1.113629453329097229e-03
8.396186403020171199e-04
1.001894793118328526e-03
8.044272068433706933e-04
9.376108941635632500e-04
6.929312505465125022e-04
7.307414889615391476e-04
5.630292389175593944e-04
6.168259131051770719e-04
4.959817180168923012e-04
5.463393832627440935e-04
4.300890588796536297e-04
4.508185825053164083e-04
4.509816486436765692e-04
4.584747105887408995e-04
4.247273456575366792e-04
3.821029436044215367e-04
3.521479749258068343e-04
3.785711810104664538e-04
3.014943221033026047e-04
3.488237077886992906e-04
2.881726304661417007e-04
2.604596278881786734e-04
2.722001691942765389e-04
2.751336557017128120e-04
2.266225773716677553e-04
2.218627700791392615e-04
2.151351975282398375e-04
1.787066228206285056e-04
1.836307378610852489e-04
1.600472785696017877e-04
1.616017551425821049e-04
1.397206049921338614e-04
1.478092143370568045e-04
1.604921074187104361e-04
1.210464638289048152e-04
1.620321252329046363e-04
1.275310775695782657e-04
1.289216983346976259e-04
1.060024044839976798e-04
1.057011134811686724e-04
1.053522373426425321e-04
1.078520273299497692e-04
1.148712240756174819e-04
9.602179542629294166e-05
8.263868267203625497e-05
8.829470147702508606e-05
7.098369905792560846e-05
8.528555913697255606e-05
6.042489818826881308e-05
6.371508053335454391e-05
5.538156988511182196e-05
6.497953099782930017e-05
5.147779113380891079e-05
5.357780731754542135e-05
5.975279893334774190e-05
4.232479166013848213e-05
4.558948430068802000e-05
4.135840676185546658e-05
3.727931141837143025e-05
3.230353065255273451e-05
3.568397534330665225e-05
3.206552520580886875e-05
2.986244412889392611e-05
2.634987605800202196e-05
2.768954556733444459e-05
2.202242055998676203e-05
4.060239706068881414e-05
2.147523535734470435e-05
3.162385093637499128e-05
2.123550328595007807e-05
2.175717125019397598e-05
2.204431052813518569e-05
2.081720658454095811e-05
1.856378710005330488e-05
1.878207799730629372e-05
1.492461604002757342e-05
1.561535004126778689e-05
1.313849842809031011e-05
1.369389695226854443e-05
1.044378012387174160e-05
1.081354303128629695e-05
1.145697368725345312e-05
1.081762789503888184e-05
9.043917871823388931e-06
9.782463099280000308e-06
8.360885653506329416e-06
7.857695692894828689e-06
7.840403951174857214e-06
7.160104686927051849e-06
6.413688623293038693e-06
6.172688461110319863e-06
6.132697307261670747e-06
5.615198832222972993e-06
5.679986373514137405e-06
5.853962442550004864e-06
4.920465941037758777e-06
5.195687296374375590e-06
4.594499570175634547e-06
4.618613661961088927e-06
5.467416488149426819e-06
4.419018305002846215e-06
4.384727530172645904e-06
4.397415263827518599e-06
3.577696416463851108e-06
3.749350231746901408e-06
3.609730942663758040e-06
3.314401870542236810e-06
3.030227954947051219e-06
3.058125682294879044e-06
2.784475956617372885e-06
2.874213464012246057e-06
2.523049570396672152e-06
2.522009125342019323e-06
2.267622643407522564e-06
2.330475295045356735e-06
2.085072943772915398e-06
2.094524447047075420e-06
1.961247159631941669e-06
1.934322452050125266e-06
1.839624603467554484e-06
1.933848330471170758e-06
1.608456095024205674e-06
1.713712002862439120e-06
1.675367935103767174e-06
1.578873930081180397e-06
1.473075806626575933e-06
1.458880920792728342e-06
1.369853757397198813e-06
1.257618406967955896e-06
1.205697082389192323e-06
1.111326471460374950e-06
1.127262014591347632e-06
1.062005057871685822e-06
1.084267935626827232e-06
9.537593289108625273e-07
9.530177667026895226e-07
9.303207973544881203e-07
9.637464121608314315e-07
9.041796642787333299e-07
8.727920784622977608e-07
8.310016320817863852e-07
8.173543862869736229e-07
9.218237936232735505e-07
8.151302242380939595e-07
7.578900204772745698e-07
7.265689186269288614e-07
7.322282738467384129e-07
6.876072928303986740e-07
6.586314241137116250e-07
5.984904904498431957e-07
6.191594985261612751e-07
5.712841212239912299e-07
6.093530032153924595e-07
5.454780425349949854e-07
5.344875190483366401e-07
4.835127836175536200e-07
5.136357827179915385e-07
4.535444220043068153e-07
4.781109700792953162e-07
4.230674024747167978e-07
4.494018156240623305e-07
3.901543576107407308e-07
4.196793140674954594e-07
3.634185312970281695e-07
3.828718992233916981e-07
3.506319821903849488e-07
3.615172255945031661e-07
3.254416413675398296e-07
3.329603668353689223e-07
2.927919410256206985e-07
3.096808414853063999e-07
2.711878638229242311e-07
2.769164378203284468e-07
2.495359754345561259e-07
2.545847704313586082e-07
2.414253665287682951e-07
2.415918241061853015e-07
2.275001634473069834e-07
2.266993841817896294e-07
2.237497885893496167e-07
2.182332192601838976e-07
2.102812117800818483e-07
2.056401365434002999e-07
1.976375871251010455e-07
1.940634518225842447e-07
1.924040592218444496e-07
1.795163683398630654e-07
1.801288283475636340e-07
1.766002592247366539e-07
1.678325461153334212e-07
1.595039283399933608e-07
1.606464133167730745e-07
1.489892449259763881e-07
1.514719105675285248e-07
1.381299074470858935e-07
1.448023313161382771e-07
1.280593489846733268e-07
1.321834369904445255e-07
1.205365038544161229e-07
1.188908020961201991e-07
1.151548364552521662e-07
1.139226573653858667e-07
1.052100150715844106e-07
1.079408431726650456e-07
9.837371180187456539e-08
1.002435623845453680e-07
9.385475253450933114e-08
9.285955147440650245e-08
8.835579931009864220e-08
8.759935755451273984e-08
8.390521066975510895e-08
8.283906771126663825e-08
8.021285041128285966e-08
7.559839313874580589e-08
7.930481471852388255e-08
7.180038098555857801e-08
7.365925182405223727e-08
6.659562987964547638e-08
6.987700933828286070e-08
6.158619578221315440e-08
6.706807187810466502e-08
5.535290492442358345e-08
6.229247316051606028e-08
5.143752093284261882e-08
5.980702549223658634e-08
4.812667942595926867e-08
5.798198266041924434e-08
4.513068858822875560e-08
5.666767652526163869e-08
4.229079941311982258e-08
5.561863781423613928e-08
3.955490175435043412e-08
5.484497682946043289e-08
3.680261070185775043e-08
5.411766831755506926e-08
3.391900498489517160e-08
5.331803980114344568e-08
3.087501374728803255e-08
5.225372446207865833e-08
2.745980006354589880e-08
5.087405651617985390e-08
2.370127599216740386e-08
4.902834577490827855e-08
1.958764516076331216e-08
4.676098491240725370e-08
1.515048417194984105e-08
4.413131994582525104e-08
1.059763580435734895e-08
4.153360868039842598e-08
6.234143179048969193e-09
3.948143163199579598e-08
2.651394298192921803e-09
3.928094674947943032e-08
