# u^2 spectrum (volumetric and time average) J. Aubert 240111 (from n=1 to nmax=133)
# Ek_eta=2.37e-7, Pr=1, Pm=1.26e-1, Ra_F=1.68e-8, P_conv=3.31e10, 43% path
3.05998859e+06
1.40447478e+06
1.55926295e+06
4.93867113e+05
9.10231911e+05
5.72241084e+05
9.71763777e+05
8.79101413e+05
1.37032805e+06
1.15693499e+06
1.40352070e+06
1.40899308e+06
1.49980140e+06
1.56256135e+06
1.69614742e+06
1.86888158e+06
1.57268140e+06
1.62266464e+06
1.28555019e+06
1.59036868e+06
1.32304646e+06
1.41684790e+06
1.17618001e+06
1.28550752e+06
1.23867241e+06
1.18259187e+06
1.17058142e+06
1.07532212e+06
1.14146394e+06
9.73150114e+05
1.03149993e+06
9.89902913e+05
9.34491390e+05
9.45405932e+05
9.19019047e+05
8.90040571e+05
8.49613115e+05
8.33324455e+05
8.16314300e+05
7.77586106e+05
7.46079265e+05
6.91532666e+05
6.91564036e+05
6.55487083e+05
6.34728539e+05
6.02007459e+05
5.77380703e+05
5.42876234e+05
5.32291189e+05
5.11062462e+05
5.06531635e+05
4.73629539e+05
4.57096502e+05
4.40627437e+05
4.24192058e+05
4.05042777e+05
3.83389734e+05
3.65108292e+05
3.52536994e+05
3.32912915e+05
3.19026134e+05
3.04666002e+05
2.97849407e+05
2.78704260e+05
2.65676425e+05
2.58416988e+05
2.46837734e+05
2.39553276e+05
2.27056151e+05
2.20837143e+05
2.10381123e+05
2.03167462e+05
1.93357467e+05
1.84837584e+05
1.77750783e+05
1.70310811e+05
1.64064365e+05
1.54935369e+05
1.49213216e+05
1.42482569e+05
1.36965907e+05
1.29808932e+05
1.24155132e+05
1.18405670e+05
1.12618173e+05
1.06983196e+05
9.95161075e+04
9.36633652e+04
8.70817059e+04
8.18155993e+04
7.52794775e+04
7.00081445e+04
6.43974601e+04
5.91894465e+04
5.34851244e+04
4.84619282e+04
4.37722363e+04
3.90118863e+04
3.47819659e+04
3.07824304e+04
2.69774787e+04
2.35213705e+04
2.02261340e+04
1.75871774e+04
1.48930238e+04
1.29324611e+04
1.08455233e+04
9.09421961e+03
7.62856215e+03
6.34998335e+03
5.17760428e+03
4.29856559e+03
3.49879171e+03
2.84583663e+03
2.30011578e+03
1.86489460e+03
1.49823355e+03
1.19921857e+03
9.62114155e+02
7.63058564e+02
6.10213187e+02
4.83627987e+02
3.82491610e+02
3.05554034e+02
2.41439415e+02
1.90147109e+02
1.49035575e+02
1.17482295e+02
9.04920259e+01
7.12152019e+01
5.49751837e+01
4.19508559e+01
3.21071904e+01