# b^2 spectrum (volumetric and time average) J. Aubert 240111 (from n=1 to nmax=133)
# Ek_eta=7.5e-6, Pr=1, Pm=4, Ra_F=1.68e-5, P_conv=5.95e8, 0% path
2.18051126e+03
1.54942754e+03
1.95216679e+03
2.75096188e+03
2.62147257e+03
2.81147868e+03
3.01179035e+03
3.70313100e+03
3.24186888e+03
3.26683373e+03
3.28098775e+03
3.35090748e+03
3.20546988e+03
3.23993966e+03
3.12409045e+03
3.04359053e+03
2.97445545e+03
2.92833251e+03
2.80604502e+03
2.69804637e+03
2.61580968e+03
2.53216039e+03
2.43605785e+03
2.35201077e+03
2.26708341e+03
2.18767171e+03
2.09488408e+03
2.02410560e+03
1.94041336e+03
1.87154768e+03
1.79599962e+03
1.73377808e+03
1.66959689e+03
1.60817186e+03
1.54445783e+03
1.48407529e+03
1.42867612e+03
1.37718533e+03
1.32521738e+03
1.27446481e+03
1.22881383e+03
1.18458257e+03
1.14156571e+03
1.10014590e+03
1.06006539e+03
1.01949768e+03
9.83624116e+02
9.49202472e+02
9.16501702e+02
8.84470416e+02
8.51645555e+02
8.24180533e+02
7.94880175e+02
7.67169301e+02
7.40728172e+02
7.16940428e+02
6.92404061e+02
6.70698471e+02
6.47948865e+02
6.25899388e+02
6.05073700e+02
5.86143633e+02
5.67354480e+02
5.49005309e+02
5.31918437e+02
5.14636419e+02
4.99230761e+02
4.83410460e+02
4.68351021e+02
4.54428850e+02
4.41311098e+02
4.27696675e+02
4.15366240e+02
4.02826576e+02
3.91222886e+02
3.79683476e+02
3.69587008e+02
3.58714019e+02
3.48677378e+02
3.38947005e+02
3.30106774e+02
3.20936273e+02
3.12366572e+02
3.03936009e+02
2.96237917e+02
2.88590182e+02
2.81192163e+02
2.73940763e+02
2.67304768e+02
2.60694425e+02
2.54436549e+02
2.48250893e+02
2.42172557e+02
2.36645329e+02
2.31526427e+02
2.26207662e+02
2.21215686e+02
2.16445614e+02
2.11653404e+02
2.07343039e+02
2.02990601e+02
1.98973943e+02
1.95137611e+02
1.91642917e+02
1.87932774e+02
1.84540650e+02
1.81208075e+02
1.78197096e+02
1.75214949e+02
1.72543845e+02
1.70119317e+02
1.67555470e+02
1.65249062e+02
1.63047453e+02
1.61189066e+02
1.59416633e+02
1.57866051e+02
1.56473736e+02
1.55301486e+02
1.54151775e+02
1.53427988e+02
1.52893972e+02
1.52537972e+02
1.52356988e+02
1.52635962e+02
1.53571880e+02
1.54722872e+02
1.57030556e+02
1.59021055e+02
1.59162115e+02
1.62066576e+02
1.78203331e+02
1.84183170e+02